{
  "base_url": "/user/fclelie-mt15-2021-tp5-9912nb7b/",
  "hostname": "0.0.0.0",
  "notebook_dir": "/home/jovyan",
  "password": false,
  "pid": 18,
  "port": 8888,
  "secure": false,
  "sock": "",
  "token": "3us1KvptQyymHOJkz6jscw",
  "url": "http://0.0.0.0:8888/user/fclelie-mt15-2021-tp5-9912nb7b/"
}